﻿{
    "spider" : "http://cdn.qiaoji8.com/fix1021.jar;md5;b0ebd6d9d069f1cc325625ee47ac921d",
    "wallpaper" : "https://tuapi.eees.cc/api.php?category=fengjing&type=302",
    "sites" : [
      
{
    "key":"jcspcj8.com",
    "name":"成人04",
    "type":0,
    "api": "http://jcspcj8.com/api?ac=videolist",
    "searchable":0,
    "quickSearch":0,
    "filterable":1
   },
    
    
 {"key": "wmcj8.com","name": "成人07","type": 0,"api": "http://wmcj8.com/inc/sapi.php","quickSearch": 1,"searchable": 1,"filterable": 1},
{"key": "secj8.com","name": "成人08","type": 0,"api": "http://secj8.com/inc/sapi.php?ac=videolist","quickSearch": 1,"searchable": 1,"filterable": 1},
{"key": "mygzycj.com","name": "成人14","type": 0,"api": "http://mygzycj.com/api.php?ac=list","quickSearch": 1,"searchable": 1,"filterable": 1},
{"key": "99zywcj.com","name": "成人16","type": 0,"api": "http://99zywcj.com/inc/sapi.php?ac=videolist","quickSearch": 1,"searchable": 1,"filterable": 1},
{
    "key":"ms4nii",
    "name":"美少女资源",
    "type":0,
    "api": "https://www.msnii.com/api/xml.php",
    "searchable":0,
    "quickSearch":0,
    "filterable":1
   },
       {
    "key":"ms",
    "name":"综合资源",
    "type":0,
    "api": "https://lbapi9.com/api.php/provide/vod/at/xml/",
    "searchable":1,
    "quickSearch":1,
    "filterable":1
   },
    {
    "key":"KxrbspE",
    "name":"淫水机资源",
    "type":0,
    "api": "https://www.xrbsp.com/api/xml.php",
    "searchable":1,
    "quickSearch":1,
    "filterable":1},
   {
    "key":"gdlsE",
    "name":"香奶儿资源",
    "type":0,
    "api": "https://www.gdlsp.com/api/xml.php",
    "searchable":1,
    "quickSearch":1,
    "filterable":1 },      
     {
    "key":"kxgav",
    "name":"白嫖资源",
    "type":0,
    "api": "https://www.kxgav.com/api/xml.php",
    "searchable":1,
    "quickSearch":1,
    "filterable":1 },

   {
    "key":"KpgxdyE",
    "name":"黄AV资源",
    "type":0,
    "api": "https://www.pgxdy.com/api/xml.php",
    "searchable":1,
    "quickSearch":1,
    "filterable":1 },
{
 "key":"ap4i156dlyE",
    "name":"奶茶资源",
    "type":0,
    "api": "https://caiji.naichaapi.com/inc/api.php",
    "searchable":1,
    "quickSearch":1,
    "filterable":1},
{
    "key":"fhapi9",
    "name":"番号资源",
    "type":1,
    "api": "http://fhapi9.com/api.php/provide/vod/",
    
    "searchable":1,
    "quickSearch":1,
    "filterable":1
   },

   {
     "key":"*JAV名优",
     "name":"*JAV名优",
     "type":0,
     "api": "http://mygzycj.com/api.php?ac=list",
     "searchable":1,
     "quickSearch":1,
     "filterable":1
     },

       {
     "key":"*JAV名优",
     "name":"*JAV名优",
     "type":0,
     "api": "http://mygzycj.com/api.php?ac=list",
     "searchable":1,
     "quickSearch":1,
     "filterable":1
     },
{
     "key":"*玖玖资源",
     "name":"*玖玖资源",
     "type":0,
     "api": "http://99zywcj.com/inc/sapi.php?ac=videolist" ,
     "searchable":1,
     "quickSearch":1,
     "filterable":1
     },
     {"key":"*色色资源","name":"*色色资源","type":0,"api":"http://secj8.com/inc/sapi.php?ac=videolist","searchable":0,"quickSearch":0},
 {
     "key":"*环亚资源",
     "name":"*环亚资源",
     "type":0,
     "api": "http://wmcj8.com/inc/sapi.php?ac=videolist",
     "searchable":1,
     "quickSearch":1,
     "filterable":1
     
            
           
            
           
           
            
           
           
            
           
           
           
      }],
    "parses" : [
           
            {
            "name" : "Web聚合",
            "type" : 3,
            "url" : "Web"
        },
            {
            "name" : "综合",
            "type" : 1,
            "url" : "https://lbjx9.com/?url="
        },
            {
            "name" : "bozrc",
            "type" : 0,
            "url" : "https://jx.bozrc.com:4433/player/?url=",
            "ext" : {
                "flag" : [
                    "qq",
                    "腾讯",
                    "qiyi",
                    "爱奇艺",
                    "奇艺",
                    "youku",
                    "优酷",
                    "mgtv",
                    "芒果",
                    "letv",
                    "乐视",
                    "pptv",
                    "PPTV",
                    "sohu",
                    "bilibili",
                    "哔哩哔哩",
                    "哔哩"],
                "header" : {
                    "User-Agent" : "okhttp/4.1.0"
                }
            }
        },
            {
            "name" : "未知2",
            "type" : 0,
            "url" : "https://jx.zhanlangbu.com/?url=",
            "ext" : {
                "flag" : [
                    "qq",
                    "腾讯",
                    "qiyi",
                    "爱奇艺",
                    "奇艺",
                    "youku",
                    "优酷",
                    "mgtv",
                    "芒果",
                    "letv",
                    "乐视",
                    "pptv",
                    "PPTV",
                    "sohu",
                    "bilibili",
                    "哔哩哔哩",
                    "哔哩"],
                "header" : {
                    "User-Agent" : "okhttp/4.1.0"
                }
            }
        },
            {
            "name" : "未知3",
            "type" : 0,
            "url" : "https://h5.freejson.xyz/player/?url=",
            "ext" : {
                "flag" : [
                    "qq",
                    "腾讯",
                    "qiyi",
                    "爱奇艺",
                    "奇艺",
                    "youku",
                    "优酷",
                    "mgtv",
                    "芒果",
                    "letv",
                    "乐视",
                    "pptv",
                    "PPTV",
                    "sohu",
                    "bilibili",
                    "哔哩哔哩",
                    "哔哩"],
                "header" : {
                    "User-Agent" : "okhttp/4.1.0"
                }
            }
        },
            {
            "name" : "OKjx嗅探",
            "type" : 0,
            "url" : "https://okjx.cc/?url="
        },
            {
            "name" : "肥猫",
            "type" : 1,
            "url" : "https://b.umkan.cc/API.php?url",
            "ext" : {
                "flag" : [
                    "qq",
                    "腾讯",
                    "企鹅",
                    "IQiYi",
                    "qiyi",
                    "爱奇艺",
                    "奇艺",
                    "youku",
                    "YouKu",
                    "优酷",
                    "sohu",
                    "SoHu",
                    "搜狐",
                    "letv",
                    "LeShi",
                    "乐视",
                    "imgo",
                    "mgtv",
                    "MangGuo",
                    "芒果",
                    "SLYS4k",
                    "BYGA",
                    "luanzi",
                    "AliS",
                    "dxzy",
                    "bilibili",
                    "QEYSS",
                    "xigua",
                    "西瓜视频",
                    "腾讯视频",
                    "奇艺视频",
                    "优酷视频",
                    "芒果视频",
                    "乐视视频"]
            }
        },
            {
            "name" : "刚刚走过",
            "type" : 1,
            "url" : "http://jx.fuqizhishi.com:63/API.php?appkey=feimao&url=",
            "ext" : {
                "flag" : [
                    "qq",
                    "腾讯",
                    "企鹅",
                    "IQiYi",
                    "qiyi",
                    "爱奇艺",
                    "奇艺",
                    "youku",
                    "YouKu",
                    "优酷",
                    "sohu",
                    "SoHu",
                    "搜狐",
                    "letv",
                    "LeShi",
                    "乐视",
                    "imgo",
                    "mgtv",
                    "MangGuo",
                    "芒果",
                    "SLYS4k",
                    "BYGA",
                    "luanzi",
                    "AliS",
                    "dxzy",
                    "bilibili",
                    "QEYSS",
                    "xigua",
                    "西瓜视频",
                    "腾讯视频",
                    "奇艺视频",
                    "优酷视频",
                    "芒果视频",
                    "乐视视频"]
            }
        }],
    "rules" : [
            {
            "host" : "*",
            "rule" : [
                "default.365yg.com"]
        },
            {
            "host" : "dyxs20.com",
            "rule" : [
                ".m3u8"]
        },
            {
            "host" : "www.agemys.cc",
            "rule" : [
                "cdn-tos",
                "obj/tos-cn"]
        },
            {
            "host" : "www.sharenice.net",
            "rule" : [
                "http.*?/play.{0,3}\\?[^url]{2,8}=.*"]
        },
            {
            "host" : "www.sharenice.net",
            "rule" : [
                "qianpailive.com",
                "vid="]
        },
            {
            "host" : "*",
            "rule" : [
                "douyin.com/aweme",
                "video_id="]
        },
            {
            "host" : "*",
            "rule" : [
                "huoshan.com",
                "/item/video/"]
        },
            {
            "host" : "*",
            "rule" : [
                "http((?!http).){12,}?\\.(m3u8|mp4|flv|avi|mkv|rm|wmv|mpg|m4a)\\?.*"]
        },
            {
            "host" : "*",
            "rule" : [
                "http((?!http).){12,}\\.(m3u8|mp4|flv|avi|mkv|rm|wmv|mpg|m4a)"]
        }],
   "lives": [
    {
   "group": "redirect",
   "channels": [
    {
   "name": "redirect",
  "urls": ["proxy://do=live&type=txt&ext=aHR0cHM6Ly9hZ2l0LmFpL3FxNDc1NjI0NzI5L3R2L3Jhdy9icmFuY2gvbWFzdGVyLzQ0LnR4dA=="
  
   ]  }]} ],
  

    "flags" : [
        "youku",
        "qq",
        "QQ",
        "iqiyi",
        "qiyi",
        "letv",
        "sohu",
        "tudou",
        "pptv",
        "PPTV",
        "mgtv",
        "ltnb",
        "rx",
        "SLYS4k",
        "BYGA",
        "BYGB",
        "luanzi",
        "dxzy",
        "QEYSS",
        "aliyun",
        "AliS",
        "122",
        "chuangying",
        "CL4K",
        "xfyun",
        "wuduzy",
        "wasu",
        "bilibili",
        "renrenmi",
        "xmm",
        "xigua",
        "m1905",
        "funshion",
        "优酷",
        "芒果",
        "腾讯",
        "爱奇艺",
        "奇艺",
        "哔哩哔哩",
        "哔哩",
        "西瓜视频",
        "腾讯视频",
        "奇艺视频",
        "优酷视频",
        "芒果视频",
        "乐视视频"],
    "ijk" : [
            {
            "group" : "软解码",
            "options" : [
                    {
                    "category" : 4,
                    "name" : "opensles",
                    "value" : "0"
                },
                    {
                    "category" : 4,
                    "name" : "overlay-format",
                    "value" : "842225234"
                },
                    {
                    "category" : 4,
                    "name" : "framedrop",
                    "value" : "1"
                },
                    {
                    "category" : 4,
                    "name" : "soundtouch",
                    "value" : "1"
                },
                    {
                    "category" : 4,
                    "name" : "start-on-prepared",
                    "value" : "1"
                },
                    {
                    "category" : 1,
                    "name" : "http-detect-rangeupport",
                    "value" : "0"
                },
                    {
                    "category" : 1,
                    "name" : "fflags",
                    "value" : "fastseek"
                },
                    {
                    "category" : 2,
                    "name" : "skip_loop_filter",
                    "value" : "48"
                },
                    {
                    "category" : 4,
                    "name" : "reconnect",
                    "value" : "1"
                },
                    {
                    "category" : 4,
                    "name" : "enable-accurateeek",
                    "value" : "0"
                },
                    {
                    "category" : 4,
                    "name" : "mediacodec",
                    "value" : "0"
                },
                    {
                    "category" : 4,
                    "name" : "mediacodec-auto-rotate",
                    "value" : "0"
                },
                    {
                    "category" : 4,
                    "name" : "mediacodec-handle-resolution-change",
                    "value" : "0"
                },
                    {
                    "category" : 4,
                    "name" : "mediacodec-hevc",
                    "value" : "0"
                },
                    {
                    "category" : 1,
                    "name" : "dns_cache_timeout",
                    "value" : "600000000"
                }]
        },
            {
            "group" : "硬解码",
            "options" : [
                    {
                    "category" : 4,
                    "name" : "opensles",
                    "value" : "0"
                },
                    {
                    "category" : 4,
                    "name" : "overlay-format",
                    "value" : "842225234"
                },
                    {
                    "category" : 4,
                    "name" : "framedrop",
                    "value" : "1"
                },
                    {
                    "category" : 4,
                    "name" : "soundtouch",
                    "value" : "1"
                },
                    {
                    "category" : 4,
                    "name" : "start-on-prepared",
                    "value" : "1"
                },
                    {
                    "category" : 1,
                    "name" : "http-detect-rangeupport",
                    "value" : "0"
                },
                    {
                    "category" : 1,
                    "name" : "fflags",
                    "value" : "fastseek"
                },
                    {
                    "category" : 2,
                    "name" : "skip_loop_filter",
                    "value" : "48"
                },
                    {
                    "category" : 4,
                    "name" : "reconnect",
                    "value" : "1"
                },
                    {
                    "category" : 4,
                    "name" : "enable-accurateeek",
                    "value" : "0"
                },
                    {
                    "category" : 4,
                    "name" : "mediacodec",
                    "value" : "1"
                },
                    {
                    "category" : 4,
                    "name" : "mediacodec-auto-rotate",
                    "value" : "1"
                },
                    {
                    "category" : 4,
                    "name" : "mediacodec-handle-resolution-change",
                    "value" : "1"
                },
                    {
                    "category" : 4,
                    "name" : "mediacodec-hevc",
                    "value" : "1"
                },
                    {
                    "category" : 1,
                    "name" : "dns_cache_timeout",
                    "value" : "600000000"
                }]
        }],
    "ads" : [
        "iqiyi.hbuioo.com",
        "vip.ffzyad.com",
        "wan.51img1.com",
        "https://lf1-cdn-tos.bytegoofy.com/obj/tos-cn-i-dy/455ccf9e8ae744378118e4bd289288dd",
        "mimg.0c1q0l.cn",
        "www.googletagmanager.com",
        "www.google-analytics.com",
        "mc.usihnbcq.cn",
        "mg.g1mm3d.cn",
        "mscs.svaeuzh.cn",
        "cnzz.hhttm.top",
        "tp.vinuxhome.com",
        "cnzz.mmstat.com",
        "www.baihuillq.com",
        "s23.cnzz.com",
        "z3.cnzz.com",
        "c.cnzz.com",
        "stj.v1vo.top",
        "z12.cnzz.com",
        "img.mosflower.cn",
        "tips.gamevvip.com",
        "ehwe.yhdtns.com",
        "xdn.cqqc3.com",
        "www.jixunkyy.cn",
        "sp.chemacid.cn",
        "hm.baidu.com",
        "s9.cnzz.com",
        "z6.cnzz.com",
        "um.cavuc.com",
        "mav.mavuz.com",
        "wofwk.aoidf3.com",
        "z5.cnzz.com",
        "xc.hubeijieshikj.cn",
        "tj.tianwenhu.com",
        "xg.gars57.cn",
        "k.jinxiuzhilv.com",
        "cdn.bootcss.com",
        "ppl.xunzhuo123.com",
        "xomk.jiangjunmh.top",
        "img.xunzhuo123.com",
        "z1.cnzz.com",
        "s13.cnzz.com",
        "xg.huataisangao.cn",
        "z7.cnzz.com",
        "xg.huataisangao.cn",
        "z2.cnzz.com",
        "s96.cnzz.com",
        "q11.cnzz.com",
        "thy.dacedsfa.cn",
        "xg.whsbpw.cn",
        "s19.cnzz.com",
        "z8.cnzz.com",
        "s4.cnzz.com",
        "f5w.as12df.top",
        "ae01.alicdn.com",
        "www.92424.cn",
        "k.wudejia.com",
        "vivovip.mmszxc.top",
        "qiu.xixiqiu.com",
        "cdnjs.hnfenxun.com",
        "cms.qdwght.com"]
}
   
    
   
